{"name":"obtener lista de recursos","id":"obtener-lista-de-recursos;obtener-lista-de-recursos","testSteps":[{"number":1,"description":"When el usuario ejecute la petición para obtener la lista completa de recursos","duration":492,"startTime":"2022-01-05T16:21:38.337-05:00[America/Bogota]","result":"SUCCESS","precondition":false,"level":0,"children":[{"number":2,"description":"Usuario do get","duration":462,"startTime":"2022-01-05T16:21:38.363-05:00[America/Bogota]","result":"SUCCESS","precondition":false,"level":1,"children":[{"number":3,"description":"Usuario executes a GET on the resource api/unknown","duration":423,"startTime":"2022-01-05T16:21:38.402-05:00[America/Bogota]","result":"SUCCESS","precondition":false,"level":2,"children":[{"number":4,"description":"GET https://reqres.in/api/unknown\r","duration":0,"startTime":"2022-01-05T16:21:38.825-05:00[America/Bogota]","result":"SUCCESS","restQuery":{"method":"GET","path":"https://reqres.in/api/unknown\r","content":"","contentType":"application/json","requestHeaders":"Accept\u003d*/*\r\n\t\t\t\tContent-Type\u003dapplication/json; charset\u003dUTF-8\r","requestCookies":"\r","responseHeaders":"Date: Wed, 05 Jan 2022 21:21:41 GMT\r\nContent-Type: application/json; charset\u003dutf-8\r\nTransfer-Encoding: chunked\r\nConnection: keep-alive\r\nx-powered-by: Express\r\naccess-control-allow-origin: *\r\netag: W/\"2c1-N6Rqerxquq2kgQhL51EiSg4x0R8\"\r\nvia: 1.1 vegur\r\nCache-Control: max-age\u003d14400\r\nCF-Cache-Status: HIT\r\nAge: 2584\r\nExpect-CT: max-age\u003d604800, report-uri\u003d\"https://report-uri.cloudflare.com/cdn-cgi/beacon/expect-ct\"\r\nReport-To: {\"endpoints\":[{\"url\":\"https:\\/\\/a.nel.cloudflare.com\\/report\\/v3?s\u003drfhVGuxBxEm%2B%2FvLsQ9cEycVolwp%2BxfMkS2iDD1fE53kRxSH%2BwWUXqlnzefVMDd89beDvy1ZrTwPKZi%2Be2oIeQHnAjyxTfxQyyU4ki1Xbyc5AoLyny3quh35r7Tc%3D\"}],\"group\":\"cf-nel\",\"max_age\":604800}\r\nNEL: {\"success_fraction\":0,\"report_to\":\"cf-nel\",\"max_age\":604800}\r\nVary: Accept-Encoding\r\nServer: cloudflare\r\nCF-RAY: 6c8fc1f7dfbc0fe0-ATL\r\nContent-Encoding: gzip\r\nalt-svc: h3\u003d\":443\"; ma\u003d86400, h3-29\u003d\":443\"; ma\u003d86400, h3-28\u003d\":443\"; ma\u003d86400, h3-27\u003d\":443\"; ma\u003d86400\r","responseCookies":"\r","responseBody":"{\n    \"page\": 1,\n    \"per_page\": 6,\n    \"total\": 12,\n    \"total_pages\": 2,\n    \"data\": [\n        {\n            \"id\": 1,\n            \"name\": \"cerulean\",\n            \"year\": 2000,\n            \"color\": \"#98B2D1\",\n            \"pantone_value\": \"15-4020\"\n        },\n        {\n            \"id\": 2,\n            \"name\": \"fuchsia rose\",\n            \"year\": 2001,\n            \"color\": \"#C74375\",\n            \"pantone_value\": \"17-2031\"\n        },\n        {\n            \"id\": 3,\n            \"name\": \"true red\",\n            \"year\": 2002,\n            \"color\": \"#BF1932\",\n            \"pantone_value\": \"19-1664\"\n        },\n        {\n            \"id\": 4,\n            \"name\": \"aqua sky\",\n            \"year\": 2003,\n            \"color\": \"#7BC4C4\",\n            \"pantone_value\": \"14-4811\"\n        },\n        {\n            \"id\": 5,\n            \"name\": \"tigerlily\",\n            \"year\": 2004,\n            \"color\": \"#E2583E\",\n            \"pantone_value\": \"17-1456\"\n        },\n        {\n            \"id\": 6,\n            \"name\": \"blue turquoise\",\n            \"year\": 2005,\n            \"color\": \"#53B0AE\",\n            \"pantone_value\": \"15-5217\"\n        }\n    ],\n    \"support\": {\n        \"url\": \"https://reqres.in/#support-heading\",\n        \"text\": \"To keep ReqRes free, contributions towards server costs are appreciated!\"\n    }\n}","statusCode":200},"precondition":false,"level":3}]}]}]},{"number":5,"description":"Then el usuario deberá obtener la lista completa de recursos","duration":72,"startTime":"2022-01-05T16:21:38.831-05:00[America/Bogota]","result":"SUCCESS","precondition":false,"level":0,"children":[{"number":6,"description":"El c\u0026oacute;digo de rspuesta HTTP debe ser: ","duration":61,"startTime":"2022-01-05T16:21:38.835-05:00[America/Bogota]","result":"SUCCESS","precondition":false,"level":1}]}],"userStory":{"id":"obtener-lista-de-recursos","storyName":"obtener lista de recursos","path":"file:///D:/Documendos-pc/sofka/Automatizacion_QA/automatizacion/AutomatizacionScreenPlayAPIRest/src/test/resources/features/services/rest/reqresin/listResources.feature","narrative":"       Yo  usuario\n       Quiero poder consultar la lista de recursos disponible\n       Para utilizar la información en mis informes","type":"feature"},"featureTag":{"name":"Reqresin/obtener lista de recursos","type":"feature","displayName":"Reqresin/obtener lista de recursos"},"title":"obtener lista de recursos","tags":[{"name":"Services/Rest","type":"theme","displayName":"Rest"},{"name":"Reqresin/obtener lista de recursos","type":"feature","displayName":"obtener lista de recursos"},{"name":"Rest/Reqresin","type":"feature","displayName":"Reqresin"},{"name":"Services","type":"theme","displayName":"Services"}],"startTime":"2022-01-05T16:21:38.325-05:00[America/Bogota]","duration":580,"projectKey":"","isManualTestingUpToDate":false,"manual":false,"testSource":"Cucumber","actors":[{"name":"Usuario","can":["call an API at https://reqres.in/"]}],"result":"SUCCESS"}